-------------------- Auto-Git Log --------------------
		Thu Oct 17 2019 03:57:36 GMT+0530 (India Standard Time)
------------------------------------------------------

Modified files:


Created files:
* .autogit/logs/log-17-9-2019-3-57-1.txt


Deleted files:


Renamed files:
