-------------------- Auto-Git Log --------------------
		Wed Oct 16 2019 21:46:58 GMT+0530 (India Standard Time)
------------------------------------------------------

Modified files:


Created files:
* .autogit/logs/log-16-9-2019-21-46-23.txt


Deleted files:


Renamed files:
