-------------------- Auto-Git Log --------------------
		Wed Oct 09 2019 05:35:53 GMT+0530 (India Standard Time)
------------------------------------------------------

Modified files:


Created files:
* .autogit/logs/log-9-9-2019-5-34-8.txt


Deleted files:


Renamed files:
