-------------------- Auto-Git Log --------------------
		Wed Oct 16 2019 23:59:28 GMT+0530 (India Standard Time)
------------------------------------------------------

Modified files:


Created files:
* .autogit/logs/log-16-9-2019-23-58-53.txt


Deleted files:


Renamed files:
