-------------------- Auto-Git Log --------------------
		Wed Oct 09 2019 20:25:51 GMT+0530 (India Standard Time)
------------------------------------------------------

Modified files:


Created files:
* .autogit/logs/log-9-9-2019-20-20-46.txt


Deleted files:


Renamed files:
