-------------------- Auto-Git Log --------------------
		Wed Oct 16 2019 22:19:39 GMT+0530 (India Standard Time)
------------------------------------------------------

Modified files:


Created files:
* .autogit/logs/log-16-9-2019-22-19-5.txt


Deleted files:


Renamed files:
