-------------------- Auto-Git Log --------------------
		Thu Oct 17 2019 02:55:44 GMT+0530 (India Standard Time)
------------------------------------------------------

Modified files:


Created files:
* .autogit/logs/log-17-9-2019-2-55-9.txt


Deleted files:


Renamed files:
