-------------------- Auto-Git Log --------------------
		Wed Oct 16 2019 23:02:51 GMT+0530 (India Standard Time)
------------------------------------------------------

Modified files:


Created files:
* .autogit/logs/log-16-9-2019-23-2-16.txt


Deleted files:


Renamed files:
