-------------------- Auto-Git Log --------------------
		Fri Oct 18 2019 04:06:14 GMT+0530 (India Standard Time)
------------------------------------------------------

Modified files:


Created files:
* .autogit/logs/log-18-9-2019-4-5-39.txt


Deleted files:


Renamed files:
