-------------------- Auto-Git Log --------------------
		Thu Oct 17 2019 03:58:46 GMT+0530 (India Standard Time)
------------------------------------------------------

Modified files:


Created files:
* .autogit/logs/log-17-9-2019-3-58-11.txt


Deleted files:


Renamed files:
