-------------------- Auto-Git Log --------------------
		Wed Oct 09 2019 20:00:21 GMT+0530 (India Standard Time)
------------------------------------------------------

Modified files:


Created files:
* .autogit/logs/log-9-9-2019-19-55-15.txt


Deleted files:


Renamed files:
