-------------------- Auto-Git Log --------------------
		Wed Oct 09 2019 16:39:58 GMT+0530 (India Standard Time)
------------------------------------------------------

Modified files:


Created files:
* .autogit/logs/log-9-9-2019-16-34-53.txt


Deleted files:


Renamed files:
