-------------------- Auto-Git Log --------------------
		Wed Oct 09 2019 02:08:21 GMT+0530 (India Standard Time)
------------------------------------------------------

Modified files:


Created files:
* .autogit/autogit.json
* .vscode/launch.json
* .vscode/tasks.json


Deleted files:


Renamed files:
