-------------------- Auto-Git Log --------------------
		Wed Oct 09 2019 21:01:49 GMT+0530 (India Standard Time)
------------------------------------------------------

Modified files:


Created files:
* .autogit/logs/log-9-9-2019-20-56-42.txt


Deleted files:


Renamed files:
