-------------------- Auto-Git Log --------------------
		Wed Oct 16 2019 23:30:17 GMT+0530 (India Standard Time)
------------------------------------------------------

Modified files:


Created files:
* .autogit/logs/log-16-9-2019-23-29-42.txt


Deleted files:


Renamed files:
