-------------------- Auto-Git Log --------------------
		Wed Oct 09 2019 20:41:25 GMT+0530 (India Standard Time)
------------------------------------------------------

Modified files:


Created files:
* .autogit/logs/log-9-9-2019-20-36-21.txt


Deleted files:


Renamed files:
