-------------------- Auto-Git Log --------------------
		Wed Oct 09 2019 05:09:37 GMT+0530 (India Standard Time)
------------------------------------------------------

Modified files:


Created files:
* .autogit/logs/log-9-9-2019-5-7-52.txt


Deleted files:


Renamed files:
