-------------------- Auto-Git Log --------------------
		Fri Oct 18 2019 03:37:04 GMT+0530 (India Standard Time)
------------------------------------------------------

Modified files:


Created files:
* .autogit/logs/log-18-9-2019-3-36-28.txt


Deleted files:


Renamed files:
