-------------------- Auto-Git Log --------------------
		Thu Oct 17 2019 00:54:20 GMT+0530 (India Standard Time)
------------------------------------------------------

Modified files:


Created files:
* .autogit/logs/log-17-9-2019-0-53-45.txt


Deleted files:


Renamed files:
