-------------------- Auto-Git Log --------------------
		Thu Oct 17 2019 01:10:40 GMT+0530 (India Standard Time)
------------------------------------------------------

Modified files:


Created files:
* .autogit/logs/log-17-9-2019-1-10-6.txt


Deleted files:


Renamed files:
