-------------------- Auto-Git Log --------------------
		Fri Oct 18 2019 04:29:35 GMT+0530 (India Standard Time)
------------------------------------------------------

Modified files:


Created files:
* .autogit/logs/log-18-9-2019-4-29-0.txt


Deleted files:


Renamed files:
