-------------------- Auto-Git Log --------------------
		Thu Oct 17 2019 02:49:19 GMT+0530 (India Standard Time)
------------------------------------------------------

Modified files:


Created files:
* .autogit/logs/log-17-9-2019-2-48-44.txt


Deleted files:


Renamed files:
