-------------------- Auto-Git Log --------------------
		Wed Oct 09 2019 15:43:54 GMT+0530 (India Standard Time)
------------------------------------------------------

Modified files:


Created files:
* .autogit/logs/log-9-9-2019-15-38-48.txt


Deleted files:


Renamed files:
