-------------------- Auto-Git Log --------------------
		Thu Oct 17 2019 02:03:47 GMT+0530 (India Standard Time)
------------------------------------------------------

Modified files:


Created files:
* .autogit/logs/log-17-9-2019-2-3-12.txt


Deleted files:


Renamed files:
