-------------------- Auto-Git Log --------------------
		Fri Oct 18 2019 05:59:00 GMT+0530 (India Standard Time)
------------------------------------------------------

Modified files:


Created files:
* .autogit/logs/log-18-9-2019-5-58-25.txt


Deleted files:


Renamed files:
