-------------------- Auto-Git Log --------------------
		Wed Oct 09 2019 14:52:56 GMT+0530 (India Standard Time)
------------------------------------------------------

Modified files:


Created files:
* .autogit/logs/log-9-9-2019-14-47-50.txt


Deleted files:


Renamed files:
