-------------------- Auto-Git Log --------------------
		Wed Oct 09 2019 15:23:32 GMT+0530 (India Standard Time)
------------------------------------------------------

Modified files:


Created files:
* .autogit/logs/log-9-9-2019-15-18-25.txt


Deleted files:


Renamed files:
