-------------------- Auto-Git Log --------------------
		Thu Oct 10 2019 07:03:24 GMT+0530 (India Standard Time)
------------------------------------------------------

Modified files:


Created files:
* .autogit/logs/log-10-9-2019-6-58-18.txt


Deleted files:


Renamed files:
