-------------------- Auto-Git Log --------------------
		Wed Oct 09 2019 18:27:02 GMT+0530 (India Standard Time)
------------------------------------------------------

Modified files:


Created files:
* .autogit/logs/log-9-9-2019-18-21-56.txt


Deleted files:


Renamed files:
