-------------------- Auto-Git Log --------------------
		Thu Oct 17 2019 00:21:39 GMT+0530 (India Standard Time)
------------------------------------------------------

Modified files:


Created files:
* .autogit/logs/log-17-9-2019-0-21-4.txt


Deleted files:


Renamed files:
