-------------------- Auto-Git Log --------------------
		Thu Oct 17 2019 03:34:15 GMT+0530 (India Standard Time)
------------------------------------------------------

Modified files:


Created files:
* .autogit/logs/log-17-9-2019-3-33-40.txt


Deleted files:


Renamed files:
