-------------------- Auto-Git Log --------------------
		Thu Oct 17 2019 05:17:34 GMT+0530 (India Standard Time)
------------------------------------------------------

Modified files:


Created files:
* .autogit/logs/log-17-9-2019-5-16-59.txt


Deleted files:


Renamed files:
