-------------------- Auto-Git Log --------------------
		Thu Oct 10 2019 09:10:54 GMT+0530 (India Standard Time)
------------------------------------------------------

Modified files:


Created files:
* .autogit/logs/log-10-9-2019-9-5-48.txt


Deleted files:


Renamed files:
