-------------------- Auto-Git Log --------------------
		Thu Oct 17 2019 04:15:42 GMT+0530 (India Standard Time)
------------------------------------------------------

Modified files:


Created files:
* .autogit/logs/log-17-9-2019-4-15-6.txt


Deleted files:


Renamed files:
