-------------------- Auto-Git Log --------------------
		Wed Oct 09 2019 02:10:06 GMT+0530 (India Standard Time)
------------------------------------------------------

Modified files:


Created files:
* .autogit/logs/log-9-9-2019-2-8-21.txt
* SalesMan.cs


Deleted files:


Renamed files:
