-------------------- Auto-Git Log --------------------
		Fri Oct 18 2019 04:16:10 GMT+0530 (India Standard Time)
------------------------------------------------------

Modified files:


Created files:
* .autogit/logs/log-18-9-2019-4-15-35.txt


Deleted files:


Renamed files:
