-------------------- Auto-Git Log --------------------
		Wed Oct 09 2019 02:39:56 GMT+0530 (India Standard Time)
------------------------------------------------------

Modified files:


Created files:
* .autogit/logs/log-9-9-2019-2-38-11.txt


Deleted files:


Renamed files:
