-------------------- Auto-Git Log --------------------
		Wed Oct 16 2019 22:34:15 GMT+0530 (India Standard Time)
------------------------------------------------------

Modified files:


Created files:
* .autogit/logs/log-16-9-2019-22-33-40.txt


Deleted files:


Renamed files:
