-------------------- Auto-Git Log --------------------
		Wed Oct 16 2019 22:02:44 GMT+0530 (India Standard Time)
------------------------------------------------------

Modified files:


Created files:
* .autogit/logs/log-16-9-2019-22-2-9.txt


Deleted files:


Renamed files:
