-------------------- Auto-Git Log --------------------
		Thu Oct 17 2019 04:18:37 GMT+0530 (India Standard Time)
------------------------------------------------------

Modified files:


Created files:
* .autogit/logs/log-17-9-2019-4-18-2.txt


Deleted files:


Renamed files:
