-------------------- Auto-Git Log --------------------
		Wed Oct 09 2019 13:41:34 GMT+0530 (India Standard Time)
------------------------------------------------------

Modified files:


Created files:
* .autogit/logs/log-9-9-2019-13-36-28.txt


Deleted files:


Renamed files:
