-------------------- Auto-Git Log --------------------
		Fri Oct 18 2019 03:12:32 GMT+0530 (India Standard Time)
------------------------------------------------------

Modified files:


Created files:
* .autogit/logs/log-18-9-2019-3-11-57.txt


Deleted files:


Renamed files:
