-------------------- Auto-Git Log --------------------
		Fri Oct 18 2019 06:14:11 GMT+0530 (India Standard Time)
------------------------------------------------------

Modified files:


Created files:
* .autogit/logs/log-18-9-2019-6-13-36.txt


Deleted files:


Renamed files:
