-------------------- Auto-Git Log --------------------
		Wed Oct 16 2019 21:50:28 GMT+0530 (India Standard Time)
------------------------------------------------------

Modified files:


Created files:
* .autogit/logs/log-16-9-2019-21-49-53.txt


Deleted files:


Renamed files:
