-------------------- Auto-Git Log --------------------
		Thu Oct 17 2019 05:19:54 GMT+0530 (India Standard Time)
------------------------------------------------------

Modified files:


Created files:
* .autogit/logs/log-17-9-2019-5-19-19.txt


Deleted files:


Renamed files:
