-------------------- Auto-Git Log --------------------
		Thu Oct 17 2019 03:04:29 GMT+0530 (India Standard Time)
------------------------------------------------------

Modified files:


Created files:
* .autogit/logs/log-17-9-2019-3-3-54.txt


Deleted files:


Renamed files:
