-------------------- Auto-Git Log --------------------
		Wed Oct 09 2019 13:10:59 GMT+0530 (India Standard Time)
------------------------------------------------------

Modified files:


Created files:
* .autogit/logs/log-9-9-2019-10-29-52.txt


Deleted files:


Renamed files:
