-------------------- Auto-Git Log --------------------
		Fri Oct 18 2019 18:41:35 GMT+0530 (India Standard Time)
------------------------------------------------------

Modified files:


Created files:
* .autogit/logs/log-18-9-2019-8-23-33.txt


Deleted files:


Renamed files:
