-------------------- Auto-Git Log --------------------
		Wed Oct 16 2019 22:59:21 GMT+0530 (India Standard Time)
------------------------------------------------------

Modified files:


Created files:
* .autogit/logs/log-16-9-2019-22-58-46.txt


Deleted files:


Renamed files:
