-------------------- Auto-Git Log --------------------
		Wed Oct 16 2019 21:46:23 GMT+0530 (India Standard Time)
------------------------------------------------------

Modified files:


Created files:
* .autogit/logs/log-16-9-2019-21-45-48.txt


Deleted files:


Renamed files:
