-------------------- Auto-Git Log --------------------
		Wed Oct 09 2019 16:19:35 GMT+0530 (India Standard Time)
------------------------------------------------------

Modified files:


Created files:
* .autogit/logs/log-9-9-2019-16-14-29.txt


Deleted files:


Renamed files:
