-------------------- Auto-Git Log --------------------
		Thu Oct 10 2019 09:05:48 GMT+0530 (India Standard Time)
------------------------------------------------------

Modified files:


Created files:
* .autogit/logs/log-10-9-2019-9-0-43.txt


Deleted files:


Renamed files:
