-------------------- Auto-Git Log --------------------
		Thu Oct 17 2019 03:27:50 GMT+0530 (India Standard Time)
------------------------------------------------------

Modified files:


Created files:
* .autogit/logs/log-17-9-2019-3-27-15.txt


Deleted files:


Renamed files:
