-------------------- Auto-Git Log --------------------
		Thu Oct 10 2019 08:09:44 GMT+0530 (India Standard Time)
------------------------------------------------------

Modified files:


Created files:
* .autogit/logs/log-10-9-2019-8-4-38.txt


Deleted files:


Renamed files:
