-------------------- Auto-Git Log --------------------
		Wed Oct 09 2019 03:31:33 GMT+0530 (India Standard Time)
------------------------------------------------------

Modified files:


Created files:
* .autogit/logs/log-9-9-2019-3-29-48.txt


Deleted files:


Renamed files:
