-------------------- Auto-Git Log --------------------
		Fri Oct 18 2019 05:56:40 GMT+0530 (India Standard Time)
------------------------------------------------------

Modified files:


Created files:
* .autogit/logs/log-18-9-2019-5-56-5.txt


Deleted files:


Renamed files:
