-------------------- Auto-Git Log --------------------
		Fri Oct 18 2019 06:07:46 GMT+0530 (India Standard Time)
------------------------------------------------------

Modified files:


Created files:
* .autogit/logs/log-18-9-2019-6-7-11.txt


Deleted files:


Renamed files:
