-------------------- Auto-Git Log --------------------
		Wed Oct 09 2019 03:17:32 GMT+0530 (India Standard Time)
------------------------------------------------------

Modified files:


Created files:
* .autogit/logs/log-9-9-2019-3-15-47.txt


Deleted files:


Renamed files:
