-------------------- Auto-Git Log --------------------
		Wed Oct 16 2019 23:28:32 GMT+0530 (India Standard Time)
------------------------------------------------------

Modified files:


Created files:
* .autogit/logs/log-16-9-2019-23-27-57.txt


Deleted files:


Renamed files:
