-------------------- Auto-Git Log --------------------
		Thu Oct 10 2019 07:28:55 GMT+0530 (India Standard Time)
------------------------------------------------------

Modified files:


Created files:
* .autogit/logs/log-10-9-2019-7-23-49.txt


Deleted files:


Renamed files:
