-------------------- Auto-Git Log --------------------
		Thu Oct 17 2019 04:55:58 GMT+0530 (India Standard Time)
------------------------------------------------------

Modified files:


Created files:
* .autogit/logs/log-17-9-2019-4-55-23.txt


Deleted files:


Renamed files:
