-------------------- Auto-Git Log --------------------
		Thu Oct 10 2019 07:44:14 GMT+0530 (India Standard Time)
------------------------------------------------------

Modified files:


Created files:
* .autogit/logs/log-10-9-2019-7-39-7.txt


Deleted files:


Renamed files:
