-------------------- Auto-Git Log --------------------
		Wed Oct 09 2019 02:25:54 GMT+0530 (India Standard Time)
------------------------------------------------------

Modified files:


Created files:
* .autogit/logs/log-9-9-2019-2-24-9.txt


Deleted files:


Renamed files:
