-------------------- Auto-Git Log --------------------
		Wed Oct 16 2019 22:38:55 GMT+0530 (India Standard Time)
------------------------------------------------------

Modified files:


Created files:
* .autogit/logs/log-16-9-2019-22-38-20.txt


Deleted files:


Renamed files:
