-------------------- Auto-Git Log --------------------
		Thu Oct 17 2019 06:00:12 GMT+0530 (India Standard Time)
------------------------------------------------------

Modified files:


Created files:
* .autogit/logs/log-17-9-2019-5-59-36.txt


Deleted files:


Renamed files:
