-------------------- Auto-Git Log --------------------
		Fri Oct 18 2019 06:00:11 GMT+0530 (India Standard Time)
------------------------------------------------------

Modified files:


Created files:
* .autogit/logs/log-18-9-2019-5-59-35.txt


Deleted files:


Renamed files:
