-------------------- Auto-Git Log --------------------
		Wed Oct 09 2019 10:14:36 GMT+0530 (India Standard Time)
------------------------------------------------------

Modified files:


Created files:
* .autogit/logs/log-9-9-2019-10-9-31.txt


Deleted files:


Renamed files:
