-------------------- Auto-Git Log --------------------
		Thu Oct 17 2019 06:06:36 GMT+0530 (India Standard Time)
------------------------------------------------------

Modified files:


Created files:
* .autogit/logs/log-17-9-2019-6-6-2.txt


Deleted files:


Renamed files:
