-------------------- Auto-Git Log --------------------
		Wed Oct 16 2019 23:34:22 GMT+0530 (India Standard Time)
------------------------------------------------------

Modified files:


Created files:
* .autogit/logs/log-16-9-2019-23-33-47.txt


Deleted files:


Renamed files:
