-------------------- Auto-Git Log --------------------
		Wed Oct 09 2019 04:32:50 GMT+0530 (India Standard Time)
------------------------------------------------------

Modified files:


Created files:
* .autogit/logs/log-9-9-2019-4-31-6.txt


Deleted files:


Renamed files:
