-------------------- Auto-Git Log --------------------
		Thu Oct 17 2019 00:56:40 GMT+0530 (India Standard Time)
------------------------------------------------------

Modified files:


Created files:
* .autogit/logs/log-17-9-2019-0-56-5.txt


Deleted files:


Renamed files:
