-------------------- Auto-Git Log --------------------
		Thu Oct 17 2019 01:37:31 GMT+0530 (India Standard Time)
------------------------------------------------------

Modified files:


Created files:
* .autogit/logs/log-17-9-2019-1-36-56.txt


Deleted files:


Renamed files:
