-------------------- Auto-Git Log --------------------
		Wed Oct 16 2019 23:46:38 GMT+0530 (India Standard Time)
------------------------------------------------------

Modified files:


Created files:
* .autogit/logs/log-16-9-2019-23-46-2.txt


Deleted files:


Renamed files:
