-------------------- Auto-Git Log --------------------
		Wed Oct 09 2019 05:44:38 GMT+0530 (India Standard Time)
------------------------------------------------------

Modified files:


Created files:
* .autogit/logs/log-9-9-2019-5-42-53.txt


Deleted files:


Renamed files:
