-------------------- Auto-Git Log --------------------
		Wed Oct 16 2019 21:32:22 GMT+0530 (India Standard Time)
------------------------------------------------------

Modified files:


Created files:
* .autogit/logs/log-16-9-2019-21-31-48.txt


Deleted files:


Renamed files:
