-------------------- Auto-Git Log --------------------
		Wed Oct 16 2019 21:34:43 GMT+0530 (India Standard Time)
------------------------------------------------------

Modified files:


Created files:
* .autogit/logs/log-16-9-2019-21-34-8.txt


Deleted files:


Renamed files:
