-------------------- Auto-Git Log --------------------
		Fri Oct 18 2019 04:51:18 GMT+0530 (India Standard Time)
------------------------------------------------------

Modified files:


Created files:
* .autogit/logs/log-18-9-2019-4-50-43.txt


Deleted files:


Renamed files:
