-------------------- Auto-Git Log --------------------
		Wed Oct 09 2019 21:52:48 GMT+0530 (India Standard Time)
------------------------------------------------------

Modified files:


Created files:
* .autogit/logs/log-9-9-2019-21-47-42.txt


Deleted files:


Renamed files:
